Getting started • tft
…
Preparing the data

tft uses the tsibble to specify time time columns and keys - when you want to create forecasts for multiple timeseries in a single model. So let’s first, transform the data.frame into a tbl_ts.

We have weekly observations for each Store and Department, but since Type and Size are informations that don’t vary on time we have also added them as ‘keys’ for tsibble. We specify the index column as the Date column.

sales <- tsibble::tsibble(
  walmart_sales, key = c(Store, Dept, Type, Size), 
  index = Date
)
sales
#> # A tsibble: 421,570 x 16 [7D]
#> # Key:       Store, Dept, Type, Size [3,331]
#>    Store  Dept Date       Weekly_Sales Type    Size Temperature Fuel_Price
#>    <dbl> <dbl> <date>            <dbl> <chr>  <dbl>       <dbl>      <dbl>
#>  1     1     1 2010-02-05       24924. A     151315        42.3       2.57
#>  2     1     1 2010-02-12       46039. A     151315        38.5       2.55
#>  3     1     1 2010-02-19       41596. A     151315        39.9       2.51
#>  4     1     1 2010-02-26       19404. A     151315        46.6       2.56
#>  5     1     1 2010-03-05       21828. A     151315        46.5       2.62
#>  6     1     1 2010-03-12       21043. A     151315        57.8       2.67
#>  7     1     1 2010-03-19       22137. A     151315        54.6       2.72
#>  8     1     1 2010-03-26       26229. A     151315        51.4       2.73
#>  9     1     1 2010-04-02       57258. A     151315        62.3       2.72
#> 10     1     1 2010-04-09       42961. A     151315        65.9       2.77
#> # … with 421,560 more rows, and 8 more variables: MarkDown1 <dbl>,
#> #   MarkDown2 <dbl>, MarkDown3 <dbl>, MarkDown4 <dbl>, MarkDown5 <dbl>,
#> #   CPI <dbl>, Unemployment <dbl>, IsHoliday <lgl>
…
#> # A tibble: 1 × 2
#>   metric value
#>   <chr>  <dbl>
#> 1 rmse   0.001

To obtain predictions for future observations, first we need to load a data.frame that includes known predictors like the IsHoliday variable for all time steps in the future data frame. Then we can call forecast or predict to obtain the predictions for the future data.

Note that forecast or predict currently can only predict for horizon time steps ahead. And don’t provide a away for doing rolling forecasts.

final_model <- fit(model, sales)
final_predictions <- forecast(model, new_data = newdata)
final_predictions

#> # A tsibble: 13,324 x 6 [7D]
#> # Key:       Store, Dept, Type, Size [3,331]
#>    Store  Dept Date       Type    Size  .pred
#>    <dbl> <dbl> <date>     <chr>  <dbl>  <dbl>
#>  1     1     1 2012-11-02 A     151315   311.
#>  2     1     1 2012-11-09 A     151315  4421.
#>  3     1     1 2012-11-16 A     151315 11085.
#>  4     1     1 2012-11-23 A     151315  7216.
#>  5     1     2 2012-11-02 A     151315  1474.
#>  6     1     2 2012-11-09 A     151315 33240.
#>  7     1     2 2012-11-16 A     151315  2639.
#>  8     1     2 2012-11-23 A     151315  1472.
#>  9     1     3 2012-11-02 A     151315  4877.
#> 10     1     3 2012-11-09 A     151315 27584.
#> # … with 13,314 more rows
…
